[
	{
		"ParameterKey": "KeyPairName",
		"ParameterValue": "pmarques@al"
	},
	{
		"ParameterKey": "ElasticsearchStack",
		"ParameterValue": ""
	},
	{
		"ParameterKey": "DBName",
		"ParameterValue": "todo"
	},
	{
		"ParameterKey": "UseDNS",
		"ParameterValue": "Disable"
	},
	{
		"ParameterKey": "UseHTTPS",
		"ParameterValue": "Disable"
	},
	{
		"ParameterKey": "DBUsername",
		"ParameterValue": "root"
	}
]
